\relax 
\providecommand\hyper@newdestlabel[2]{}
\providecommand\HyperFirstAtBeginDocument{\AtBeginDocument}
\HyperFirstAtBeginDocument{\ifx\hyper@anchor\@undefined
\global\let\oldcontentsline\contentsline
\gdef\contentsline#1#2#3#4{\oldcontentsline{#1}{#2}{#3}}
\global\let\oldnewlabel\newlabel
\gdef\newlabel#1#2{\newlabelxx{#1}#2}
\gdef\newlabelxx#1#2#3#4#5#6{\oldnewlabel{#1}{{#2}{#3}}}
\AtEndDocument{\ifx\hyper@anchor\@undefined
\let\contentsline\oldcontentsline
\let\newlabel\oldnewlabel
\fi}
\fi}
\global\let\hyper@last\relax 
\gdef\HyperFirstAtBeginDocument#1{#1}
\providecommand\HyField@AuxAddToFields[1]{}
\providecommand\HyField@AuxAddToCoFields[2]{}
\babel@aux{english}{}
\newlabel{index::doc}{{}{1}{}{section*.2}{}}
\@writefile{toc}{\contentsline {chapter}{\numberline {1}voice-control}{1}{chapter.1}}
\@writefile{lof}{\addvspace {10\p@ }}
\@writefile{lot}{\addvspace {10\p@ }}
\newlabel{index:documentation-for-the-project-voice-control}{{1}{1}{voice-control}{chapter.1}{}}
\newlabel{index:voice-control}{{1}{1}{voice-control}{chapter.1}{}}
\@writefile{toc}{\contentsline {section}{\numberline {1.1}animated\_label module}{1}{section.1.1}}
\newlabel{animated_label:animated-label-module}{{1.1}{1}{animated\_label module}{section.1.1}{}}
\newlabel{animated_label::doc}{{1.1}{1}{animated\_label module}{section.1.1}{}}
\newlabel{animated_label:animated_label.AnimatedLabel}{{1.1}{1}{animated\_label module}{section*.3}{}}
\newlabel{animated_label:animated_label.AnimatedLabel.fade_out}{{1.1}{1}{animated\_label module}{section*.4}{}}
\newlabel{animated_label:animated_label.AnimatedLabel.show_text}{{1.1}{1}{animated\_label module}{section*.5}{}}
\@writefile{toc}{\contentsline {section}{\numberline {1.2}audio\_visualisation module}{1}{section.1.2}}
\newlabel{audio_visualisation::doc}{{1.2}{1}{audio\_visualisation module}{section.1.2}{}}
\newlabel{audio_visualisation:module-audio_visualisation}{{1.2}{1}{audio\_visualisation module}{section.1.2}{}}
\newlabel{audio_visualisation:audio-visualisation-module}{{1.2}{1}{audio\_visualisation module}{section.1.2}{}}
\newlabel{audio_visualisation:audio_visualisation.AudioVisualisation}{{1.2}{1}{audio\_visualisation module}{section*.6}{}}
\newlabel{audio_visualisation:audio_visualisation.AudioVisualisation.plot_data}{{1.2}{1}{audio\_visualisation module}{section*.7}{}}
\@writefile{toc}{\contentsline {section}{\numberline {1.3}label\_audio module}{1}{section.1.3}}
\newlabel{label_audio:module-label_audio}{{1.3}{1}{label\_audio module}{section.1.3}{}}
\newlabel{label_audio:label-audio-module}{{1.3}{1}{label\_audio module}{section.1.3}{}}
\newlabel{label_audio::doc}{{1.3}{1}{label\_audio module}{section.1.3}{}}
\newlabel{label_audio:label_audio.LabelAudio}{{1.3}{1}{label\_audio module}{section*.8}{}}
\newlabel{label_audio:label_audio.LabelAudio.label_word}{{1.3}{1}{label\_audio module}{section*.9}{}}
\@writefile{toc}{\contentsline {section}{\numberline {1.4}labeling\_thread module}{2}{section.1.4}}
\newlabel{labeling_thread:module-labeling_thread}{{1.4}{2}{labeling\_thread module}{section.1.4}{}}
\newlabel{labeling_thread:labeling-thread-module}{{1.4}{2}{labeling\_thread module}{section.1.4}{}}
\newlabel{labeling_thread::doc}{{1.4}{2}{labeling\_thread module}{section.1.4}{}}
\newlabel{labeling_thread:labeling_thread.LabelingThread}{{1.4}{2}{labeling\_thread module}{section*.10}{}}
\newlabel{labeling_thread:labeling_thread.LabelingThread.add_wav_header}{{1.4}{2}{labeling\_thread module}{section*.11}{}}
\newlabel{labeling_thread:labeling_thread.LabelingThread.energy_threshold}{{1.4}{2}{labeling\_thread module}{section*.12}{}}
\newlabel{labeling_thread:labeling_thread.LabelingThread.error_message}{{1.4}{2}{labeling\_thread module}{section*.13}{}}
\newlabel{labeling_thread:labeling_thread.LabelingThread.get_label}{{1.4}{2}{labeling\_thread module}{section*.14}{}}
\newlabel{labeling_thread:labeling_thread.LabelingThread.got_label}{{1.4}{2}{labeling\_thread module}{section*.15}{}}
\newlabel{labeling_thread:labeling_thread.LabelingThread.recorded_word}{{1.4}{2}{labeling\_thread module}{section*.16}{}}
\newlabel{labeling_thread:labeling_thread.LabelingThread.run}{{1.4}{2}{labeling\_thread module}{section*.17}{}}
\@writefile{toc}{\contentsline {section}{\numberline {1.5}main module}{2}{section.1.5}}
\newlabel{main:module-main}{{1.5}{2}{main module}{section.1.5}{}}
\newlabel{main:main-module}{{1.5}{2}{main module}{section.1.5}{}}
\newlabel{main::doc}{{1.5}{2}{main module}{section.1.5}{}}
\newlabel{main:main.Gui}{{1.5}{2}{main module}{section*.18}{}}
\newlabel{main:main.Gui.display_error_message}{{1.5}{2}{main module}{section*.19}{}}
\newlabel{main:main.Gui.got_label}{{1.5}{2}{main module}{section*.20}{}}
\newlabel{main:main.Gui.graph_path}{{1.5}{2}{main module}{section*.21}{}}
\newlabel{main:main.Gui.label_path}{{1.5}{3}{main module}{section*.22}{}}
\newlabel{main:main.Gui.load_graph}{{1.5}{3}{main module}{section*.23}{}}
\newlabel{main:main.Gui.load_labels}{{1.5}{3}{main module}{section*.24}{}}
\newlabel{main:main.Gui.reset_icon}{{1.5}{3}{main module}{section*.25}{}}
\newlabel{main:main.Gui.sensitivity_changed}{{1.5}{3}{main module}{section*.26}{}}
\newlabel{main:main.Gui.show_about_dialog}{{1.5}{3}{main module}{section*.27}{}}
\newlabel{main:main.Gui.toggle_record}{{1.5}{3}{main module}{section*.28}{}}
\@writefile{toc}{\contentsline {chapter}{Python Module Index}{5}{section*.29}}
\@writefile{toc}{\contentsline {chapter}{Index}{7}{section*.30}}
