\babel@toc {english}{}
\contentsline {chapter}{\numberline {1}voice-control}{1}{chapter.1}
\contentsline {section}{\numberline {1.1}animated\_label module}{1}{section.1.1}
\contentsline {section}{\numberline {1.2}audio\_visualisation module}{1}{section.1.2}
\contentsline {section}{\numberline {1.3}label\_audio module}{1}{section.1.3}
\contentsline {section}{\numberline {1.4}labeling\_thread module}{2}{section.1.4}
\contentsline {section}{\numberline {1.5}main module}{2}{section.1.5}
\contentsline {chapter}{Python Module Index}{5}{section*.29}
\contentsline {chapter}{Index}{7}{section*.30}
